untitled/simWorkspace/Dut/test.vcd
$version Generated by VerilatedVcd $end
$date 11/25/22 09:24:56 $end
$timescale 1ps $end

 $scope module TOP $end
  $var wire  8 # io_a [7:0] $end
  $var wire  8 $ io_b [7:0] $end
  $var wire  8 % io_c [7:0] $end
  $var wire  8 & io_result [7:0] $end
  $scope module Dut $end
   $var wire  8 # io_a [7:0] $end
   $var wire  8 $ io_b [7:0] $end
   $var wire  8 % io_c [7:0] $end
   $var wire  8 & io_result [7:0] $end
  $upscope $end
 $upscope $end
$enddefinitions $end


#0
b10011011 #
b00111101 $
b10100110 %
b00110010 &
#1
b10010000 #
b00000111 $
b10010001 %
b00000110 &
#2
b01100110 #
b11000111 $
b11000111 %
b01100110 &
#3
b11111010 #
b01001101 $
b00100111 %
b00100000 &
#4
b10101000 #
b01001010 $
b11010100 %
b00011110 &
#5
b11001111 #
b10001000 $
b10100010 %
b10110101 &
#6
b10011001 #
b00100101 $
b10101010 %
b00010100 &
#7
b00100101 #
b01101001 $
b00011001 %
b01110101 &
#8
b10001000 #
b11100101 $
b00111111 %
b00101110 &
#9
b11101000 #
b01101001 $
b01011011 %
b11110110 &
#10
b00101011 #
b11010000 $
b10001001 %
b01110010 &
#11
b11101000 #
b11111110 $
b11001110 %
b00011000 &
#12
b10100010 #
b11100101 $
b11001101 %
b10111010 &
#13
b11111000 #
b00110010 $
b00101100 %
b11111110 &
#14
b11101001 #
b11110111 $
b00010010 %
b11001110 &
#15
b01011111 #
b11011011 $
b10000101 %
b10110101 &
#16
b10110111 #
b01011101 $
b00110000 %
b11100100 &
#17
b01010100 #
b01000110 $
b01001101 %
b01001101 &
#18
b01001010 #
b10000101 $
b00011101 %
b10110010 &
#19
b10100001 #
b11100101 $
b11101010 %
b10011100 &
#20
b01100111 #
b00010101 $
b10011010 %
b11100010 &
#21
b10011101 #
b11111010 $
b00011110 %
b01111001 &
#22
b11101001 #
b10010110 $
b01101010 %
b00010101 &
#23
b00010001 #
b00111101 $
b10011111 %
b10101111 &
#24
b11110110 #
b10100110 $
b11011100 %
b11000000 &
#25
b01110001 #
b11111000 $
b10101000 %
b11000001 &
#26
b00011100 #
b00111000 $
b00001010 %
b01001010 &
#27
b11001001 #
b11000101 $
b00100100 %
b01101010 &
#28
b10000111 #
b11110100 $
b10101011 %
b11010000 &
#29
b00110111 #
b00110001 $
b00111100 %
b00101100 &
#30
b11011100 #
b00010100 $
b10010101 %
b01011011 &
#31
b00101110 #
b01001001 $
b11100111 %
b10010000 &
#32
b11010110 #
b00011001 $
b10110111 %
b00111000 &
#33
b01100101 #
b10101001 $
b00000011 %
b00001011 &
#34
b00110100 #
b00111000 $
b01100001 %
#35
b01011101 #
b00000000 $
b00100110 %
b00110111 &
#36
b11011010 #
b00011100 $
b11000101 %
b00110001 &
#37
b01100001 #
b01100010 $
b00011111 %
b10100100 &
#38
b10110010 #
b11101110 $
b11000101 %
b11011011 &
#39
b00101001 #
b01001010 $
b10001101 %
b11100110 &
#40
b10110111 #
b00000100 $
b11000010 %
b11111001 &
#41
b01000101 #
b10001111 $
b01010101 %
b01111111 &
#42
b00111001 #
b00000010 $
b01111001 %
b11000010 &
#43
b11101111 #
b00010100 $
b00000111 %
b11111100 &
#44
b01100010 #
b01100101 $
b00111101 %
b10001010 &
#45
b11101001 #
b00010000 $
b01001000 %
b10110001 &
#46
b10011111 #
b11100011 $
b11100110 %
b10011100 &
#47
b10010110 #
b00001111 $
b01101000 %
b00111101 &
#48
b11001100 #
b11100110 $
b01111110 %
b00110100 &
#49
b01111001 #
b11000111 $
b11111110 %
b01000010 &
#50
b11100000 #
b01101111 $
b01011110 %
b11110001 &
#51
b01101111 #
b11110001 $
b10111010 %
b10100110 &
#52
b11101001 #
b01100101 $
b10010000 %
b10111110 &
#53
b11100101 #
b01011100 $
b11111101 %
b01000100 &
#54
b00101101 #
b00011011 $
b00000111 %
b01000001 &
#55
b01111001 #
b11101101 $
b01011010 %
b00001100 &
#56
b01010001 #
b11100010 $
b00010100 %
b00011111 &
#57
b00100100 #
b10011011 $
b11001100 %
b11110011 &
#58
b10011001 #
b10000110 $
b01000001 %
b11011110 &
#59
b10111100 #
b00001100 $
b11001111 %
b11111001 &
#60
b10100011 #
b01000100 $
b01100111 %
b10000000 &
#61
b00101101 #
b10010001 $
b01011101 %
b01100001 &
#62
b01000100 #
b10110000 $
b10001010 %
b01101010 &
#63
b01111111 #
b01010100 $
b11011110 %
b11110101 &
#64
b00100001 #
b10111111 $
b00000101 %
b11011011 &
#65
b11010011 #
b10011111 $
b01000101 %
b00101101 &
#66
b10010111 #
b00110001 $
b11101001 %
b11011111 &
#67
b11001111 #
b11001100 $
b01111001 %
b00100010 &
#68
b11111000 #
b00110100 $
b10101000 %
b10000100 &
#69
b11101010 #
b00001000 $
b11101001 %
b00001001 &
#70
b01000110 #
b10010110 $
b00111101 %
b10011111 &
#71
b11001010 #
b01101101 $
b00101011 %
b00001100 &
#72
b00101101 #
b10111100 $
b01101110 %
b01111011 &
#73
b00011011 #
b11000011 $
b01010101 %
b10001001 &
#74
b01010010 #
b10110100 $
b01011101 %
b10101001 &
#75
b10110001 #
b10010000 $
b10000101 %
b10111100 &
#76
b10111111 #
b10001011 $
b01011000 %
b11110010 &
#77
b10011000 #
b11010001 $
b00011101 %
b01001100 &
#78
b00011100 #
b00111100 $
b10101001 %
b10101111 &
#79
b01010001 #
b11010011 $
b10000011 %
b10100001 &
#80
b00100001 #
b00101010 $
b10111011 %
b10010000 &
#81
b01101110 #
b11100010 $
b10110000 %
b10100000 &
#82
b11101100 #
b11100100 $
b01100010 %
b01101110 &
#83
b00000101 #
b01101111 $
b00001100 %
b01101000 &
#84
b10101110 #
b00100010 $
b10101111 %
b00100001 &
#85
b11001001 #
b11000110 $
b10101000 %
b11100111 &
#86
b11111111 #
b01111010 $
b11101101 %
b10001100 &
#87
b00010011 #
b11011111 $
b01011001 %
b10011001 &
#88
b01100100 #
b10011011 $
b01110001 %
b10001110 &
#89
b00111101 #
b10101011 $
b11110001 %
b11110111 &
#90
b10011010 #
b00010000 $
b01000000 %
b01101010 &
#91
b00110101 #
b10111110 $
b11010011 %
b00100000 &
#92
b10001101 #
b00111101 $
b00101111 %
b10011011 &
#93
b11000110 #
b01001010 $
b00010111 %
b11111001 &
#94
b10100010 #
b00111100 $
b01001010 %
b10010100 &
#95
b11001010 #
b10100000 $
b10101010 %
b11000000 &
#96
b00100010 #
b00100110 $
b11001010 %
b01111110 &
#97
b10000001 #
b11011111 $
b10111001 %
b10100111 &
#98
b10001010 #
b00010101 $
b01111110 %
b00100001 &
#99
b11011100 #
b01011011 $
b11001011 %
b01101100 &
